
Id: AB-0123-QQ
Sum: 5
Time: 11.05.2021 18:08:46
Id: CE-1298-VD
Sum: 3,5
Time: 11.05.2021 18:08:46
Id: RE-7777-ER
Sum: 2
Time: 11.05.2021 18:08:46
Id: UY-0102-MN
Sum: 1
Time: 11.05.2021 18:08:46
Id: AB-0123-QQ
Sum: 5
Time: 11.05.2021 18:08:51
Id: CE-1298-VD
Sum: 3,5
Time: 11.05.2021 18:08:51
Id: RE-7777-ER
Sum: 2
Time: 11.05.2021 18:08:51
Id: UY-0102-MN
Sum: 1
Time: 11.05.2021 18:08:51
Id: AB-0123-QQ
Sum: 5
Time: 11.05.2021 18:08:56
Id: CE-1298-VD
Sum: 3,5
Time: 11.05.2021 18:08:56
Id: RE-7777-ER
Sum: 2
Time: 11.05.2021 18:08:56
Id: UY-0102-MN
Sum: 1
Time: 11.05.2021 18:08:56
Id: AB-0123-QQ
Sum: 5
Time: 11.05.2021 18:09:01
Id: CE-1298-VD
Sum: 3,5
Time: 11.05.2021 18:09:01
Id: RE-7777-ER
Sum: 2
Time: 11.05.2021 18:09:01
Id: UY-0102-MN
Sum: 1
Time: 11.05.2021 18:09:01
Id: AB-0123-QQ
Sum: 5
Time: 11.05.2021 18:09:06
Id: CE-1298-VD
Sum: 3,5
Time: 11.05.2021 18:09:06
Id: RE-7777-ER
Sum: 2
Time: 11.05.2021 18:09:06
Id: UY-0102-MN
Sum: 1
Time: 11.05.2021 18:09:06
Id: AB-0123-QQ
Sum: 5
Time: 11.05.2021 18:09:11
Id: CE-1298-VD
Sum: 3,5
Time: 11.05.2021 18:09:11
Id: RE-7777-ER
Sum: 2
Time: 11.05.2021 18:09:11
Id: UY-0102-MN
Sum: 1
Time: 11.05.2021 18:09:11
Id: AB-0123-QQ
Sum: 5
Time: 11.05.2021 18:09:16
Id: CE-1298-VD
Sum: 3,5
Time: 11.05.2021 18:09:16
Id: RE-7777-ER
Sum: 2
Time: 11.05.2021 18:09:16
Id: UY-0102-MN
Sum: 1
Time: 11.05.2021 18:09:16
Id: AB-0123-QQ
Sum: 5
Time: 11.05.2021 18:09:21
Id: CE-1298-VD
Sum: 3,5
Time: 11.05.2021 18:09:21
Id: RE-7777-ER
Sum: 2
Time: 11.05.2021 18:09:21
Id: UY-0102-MN
Sum: 1
Time: 11.05.2021 18:09:21
Id: QW-0101-QW
Sum: 3,5
Time: 11.05.2021 18:09:21
Id: AB-0123-QQ
Sum: 5
Time: 11.05.2021 18:09:26
Id: CE-1298-VD
Sum: 3,5
Time: 11.05.2021 18:09:26
Id: RE-7777-ER
Sum: 2
Time: 11.05.2021 18:09:26
Id: UY-0102-MN
Sum: 1
Time: 11.05.2021 18:09:26
Id: QW-0101-QW
Sum: 5,0
Time: 11.05.2021 18:09:26
Id: JO-9119-PR
Sum: 5
Time: 11.05.2021 18:09:26
Id: AB-0123-QQ
Sum: 5
Time: 11.05.2021 18:09:31
Id: CE-1298-VD
Sum: 3,5
Time: 11.05.2021 18:09:31
Id: RE-7777-ER
Sum: 2
Time: 11.05.2021 18:09:31
Id: UY-0102-MN
Sum: 1
Time: 11.05.2021 18:09:31
Id: QW-0101-QW
Sum: 5,0
Time: 11.05.2021 18:09:31
Id: JO-9119-PR
Sum: 5
Time: 11.05.2021 18:09:31
Id: AB-0123-QQ
Sum: 5
Time: 11.05.2021 18:09:36
Id: CE-1298-VD
Sum: 3,5
Time: 11.05.2021 18:09:36
Id: RE-7777-ER
Sum: 2
Time: 11.05.2021 18:09:36
Id: UY-0102-MN
Sum: 1
Time: 11.05.2021 18:09:36
Id: QW-0101-QW
Sum: 5,0
Time: 11.05.2021 18:09:36
Id: JO-9119-PR
Sum: 5
Time: 11.05.2021 18:09:36
Id: AB-0123-QQ
Sum: 5
Time: 11.05.2021 18:09:41
Id: CE-1298-VD
Sum: 3,5
Time: 11.05.2021 18:09:41
Id: RE-7777-ER
Sum: 2
Time: 11.05.2021 18:09:41
Id: UY-0102-MN
Sum: 1
Time: 11.05.2021 18:09:41
Id: QW-0101-QW
Sum: 5,0
Time: 11.05.2021 18:09:41
Id: JO-9119-PR
Sum: 5
Time: 11.05.2021 18:09:41
